<svg width="15" height="25" viewBox="0 0 15 25" fill="none" xmlns="http://www.w3.org/2000/svg">
<path d="M-3.85389e-06 22.0417L9.27125 12.5L-5.13609e-07 2.9375L2.85425 4.99053e-07L15 12.5L2.85425 25L-3.85389e-06 22.0417Z" fill="#4F4F4F"/>
</svg>
