<svg width="22" height="22" viewBox="0 0 22 22" fill="none" xmlns="http://www.w3.org/2000/svg">
<path d="M21.1617 5.21332C21.6167 4.75832 21.6167 3.99999 21.1617 3.56832L18.4317 0.83832C18 0.38332 17.2417 0.38332 16.7867 0.83832L14.64 2.97332L19.015 7.34832L21.1617 5.21332ZM0.5 17.125V21.5H4.875L17.7783 8.58499L13.4033 4.20999L0.5 17.125Z" fill="white"/>
</svg>
